{
  "count": 3739,
  "next": "https://www.udemy.com/api-2.0/courses/1178124/reviews/?page=2&page_size=10",
  "previous": null,
  "results": [
    {
      "_class": "course_review",
      "id": 16838850,
      "title": "",
      "content": "",
      "rating": 4,
      "created": "2018-05-23T09:23:42Z",
      "modified": "2018-05-23T20:01:25Z",
      "user_modified": "2018-05-23T09:23:44Z",
      "user": {
        "_class": "user",
        "title": "Anon Title",
        "name": "Anon Name",
        "display_name": "Anon Display Name"
      }
    },
    {
      "_class": "course_review",
      "id": 16838846,
      "title": "",
      "content": "",
      "rating": 4.5,
      "created": "2018-05-23T09:23:17Z",
      "modified": "2018-05-23T20:01:25Z",
      "user_modified": "2018-05-23T09:23:50Z",
      "user": {
        "_class": "user",
        "title": "Anon Title",
        "name": "Anon Name",
        "display_name": "Anon Display Name"
      }
    },
    {
      "_class": "course_review",
      "id": 16837410,
      "title": "",
      "content": "",
      "rating": 5,
      "created": "2018-05-23T08:17:03Z",
      "modified": "2018-05-23T20:01:25Z",
      "user_modified": "2018-05-23T08:17:32Z",
      "user": {
        "_class": "user",
        "title": "Anon Title",
        "name": "Anon Name",
        "display_name": "Anon Display Name"
      }
    },
    {
      "_class": "course_review",
      "id": 16836372,
      "title": "",
      "content": "",
      "rating": 5,
      "created": "2018-05-23T07:21:55Z",
      "modified": "2018-05-23T20:01:25Z",
      "user_modified": "2018-05-23T07:21:56Z",
      "user": {
        "_class": "user",
        "title": "Anon Title",
        "name": "Anon Name",
        "display_name": "Anon Display Name"
      }
    },
    {
      "_class": "course_review",
      "id": 16835850,
      "title": "",
      "content": "",
      "rating": 5,
      "created": "2018-05-23T06:56:57Z",
      "modified": "2018-05-23T20:01:25Z",
      "user_modified": "2018-05-23T06:56:58Z",
      "user": {
        "_class": "user",
        "title": "Anon Title",
        "name": "Anon Name",
        "display_name": "Anon Display Name"
      }
    },
    {
      "_class": "course_review",
      "id": 16835040,
      "title": "",
      "content": "I love how this course is broken down into pieces designed for absolute beginners. I have some experience with using Unity, but only from experimenting with the software. With this course I'm really beginning to have a solid understanding of how it works and what it is capable of. Thank you so much.",
      "rating": 5,
      "created": "2018-05-23T06:18:34Z",
      "modified": "2018-05-23T20:01:25Z",
      "user_modified": "2018-05-23T06:22:32Z",
      "user": {
        "_class": "user",
        "title": "Anon Title",
        "name": "Anon Name",
        "display_name": "Anon Display Name"
      }
    },
    {
      "_class": "course_review",
      "id": 16830022,
      "title": "",
      "content": "",
      "rating": 5,
      "created": "2018-05-23T01:57:31Z",
      "modified": "2018-05-23T20:01:25Z",
      "user_modified": "2018-05-23T01:57:32Z",
      "user": {
        "_class": "user",
        "title": "Anon Title",
        "name": "Anon Name",
        "display_name": "Anon Display Name"
      }
    },
    {
      "_class": "course_review",
      "id": 16829446,
      "title": "",
      "content": "",
      "rating": 5,
      "created": "2018-05-23T01:28:45Z",
      "modified": "2018-05-23T20:01:25Z",
      "user_modified": "2018-05-23T01:28:48Z",
      "user": {
        "_class": "user",
        "title": "Anon Title",
        "name": "Anon Name",
        "display_name": "Anon Display Name"
      }
    },
    {
      "_class": "course_review",
      "id": 16829024,
      "title": "",
      "content": "",
      "rating": 4.5,
      "created": "2018-05-23T01:09:32Z",
      "modified": "2018-05-23T20:01:25Z",
      "user_modified": "2018-05-23T01:09:33Z",
      "user": {
        "_class": "user",
        "title": "Anon Title",
        "name": "Anon Name",
        "display_name": "Anon Display Name"
      }
    },
    {
      "_class": "course_review",
      "id": 16828736,
      "title": "",
      "content": "",
      "rating": 5,
      "created": "2018-05-23T00:55:13Z",
      "modified": "2018-05-23T20:01:25Z",
      "user_modified": "2018-05-23T00:55:15Z",
      "user": {
        "_class": "user",
        "title": "Anon Title",
        "name": "Anon Name",
        "display_name": "Anon Display Name"
      }
    }
  ]
}
